{
  "serviceURL": "http://utility.arcgisonline.com/arcgis/rest/services/Utilities/PrintingTools/GPServer/Export%20Web%20Map%20Task",
  "defaultTitle": "ArcGIS Web Map",
  "defaultAuthor": "Web AppBuilder for ArcGIS",
  "defaultCopyright": "",
  "defaultFormat": "",
  "defaultLayout": ""
}